{
  "mongoURI": "mongodb+srv://Javad_cheraghi:4900javad4900@devconnector.5wfne.mongodb.net/devConnector?retryWrites=true&w=majority",
  "jwtSecret": "mysecrettoken",
  "githubClientId": "71b71c7ce45d256392be",
  "githubSecret": "bc439227beb59b13723ad0ad60f9ee49444506d3"
}
